{
  "project_info": {
    "project_number": "1079888732826",
    "firebase_url": "https://scanpicture-d3176.firebaseio.com",
    "project_id": "scanpicture-d3176",
    "storage_bucket": "scanpicture-d3176.appspot.com"
  },
  "client": [
    {
      "client_info": {
        "mobilesdk_app_id": "1:1079888732826:android:121a074689bd58b3",
        "android_client_info": {
          "package_name": "com.apps.proyectos.scanpicture"
        }
      },
      "oauth_client": [
        {
          "client_id": "1079888732826-3jijdmeikl9mvdpl3p2ci3caib35batp.apps.googleusercontent.com",
          "client_type": 1,
          "android_info": {
            "package_name": "com.apps.proyectos.scanpicture",
            "certificate_hash": "1b257ef14d308f295cd7c7f1fe5794c1dba4ce33"
          }
        },
        {
          "client_id": "1079888732826-iatp3u21h44mr2drr9fd9l76i6k436vh.apps.googleusercontent.com",
          "client_type": 3
        }
      ],
      "api_key": [
        {
          "current_key": "AIzaSyAk8jYqiIVK8zcy4Knk0rboAdYMUq8_IwA"
        }
      ],
      "services": {
        "appinvite_service": {
          "other_platform_oauth_client": [
            {
              "client_id": "1079888732826-iatp3u21h44mr2drr9fd9l76i6k436vh.apps.googleusercontent.com",
              "client_type": 3
            }
          ]
        }
      }
    }
  ],
  "configuration_version": "1"
}